%!PS-Adobe-3.0 EPSF-3.0
%%Creator: (MATLAB, The Mathworks, Inc. Version 9.5.0.944444 \(R2018b\). Operating System: Linux)
%%Title: Figures/G.eps
%%CreationDate: 2021-08-12T15:35:28
%%Pages: (atend)
%%BoundingBox:    25     8   551   557
%%LanguageLevel: 3
%%EndComments
%%BeginProlog
%%BeginResource: procset (Apache XML Graphics Std ProcSet) 1.2 0
%%Version: 1.2 0
%%Copyright: (Copyright 2001-2003,2010 The Apache Software Foundation. License terms: http://www.apache.org/licenses/LICENSE-2.0)
/bd{bind def}bind def
/ld{load def}bd
/GR/grestore ld
/GS/gsave ld
/RM/rmoveto ld
/C/curveto ld
/t/show ld
/L/lineto ld
/ML/setmiterlimit ld
/CT/concat ld
/f/fill ld
/N/newpath ld
/S/stroke ld
/CC/setcmykcolor ld
/A/ashow ld
/cp/closepath ld
/RC/setrgbcolor ld
/LJ/setlinejoin ld
/GC/setgray ld
/LW/setlinewidth ld
/M/moveto ld
/re {4 2 roll M
1 index 0 rlineto
0 exch rlineto
neg 0 rlineto
cp } bd
/_ctm matrix def
/_tm matrix def
/BT { _ctm currentmatrix pop matrix _tm copy pop 0 0 moveto } bd
/ET { _ctm setmatrix } bd
/iTm { _ctm setmatrix _tm concat } bd
/Tm { _tm astore pop iTm 0 0 moveto } bd
/ux 0.0 def
/uy 0.0 def
/F {
  /Tp exch def
  /Tf exch def
  Tf findfont Tp scalefont setfont
  /cf Tf def  /cs Tp def
} bd
/ULS {currentpoint /uy exch def /ux exch def} bd
/ULE {
  /Tcx currentpoint pop def
  gsave
  newpath
  cf findfont cs scalefont dup
  /FontMatrix get 0 get /Ts exch def /FontInfo get dup
  /UnderlinePosition get Ts mul /To exch def
  /UnderlineThickness get Ts mul /Tt exch def
  ux uy To add moveto  Tcx uy To add lineto
  Tt setlinewidth stroke
  grestore
} bd
/OLE {
  /Tcx currentpoint pop def
  gsave
  newpath
  cf findfont cs scalefont dup
  /FontMatrix get 0 get /Ts exch def /FontInfo get dup
  /UnderlinePosition get Ts mul /To exch def
  /UnderlineThickness get Ts mul /Tt exch def
  ux uy To add cs add moveto Tcx uy To add cs add lineto
  Tt setlinewidth stroke
  grestore
} bd
/SOE {
  /Tcx currentpoint pop def
  gsave
  newpath
  cf findfont cs scalefont dup
  /FontMatrix get 0 get /Ts exch def /FontInfo get dup
  /UnderlinePosition get Ts mul /To exch def
  /UnderlineThickness get Ts mul /Tt exch def
  ux uy To add cs 10 mul 26 idiv add moveto Tcx uy To add cs 10 mul 26 idiv add lineto
  Tt setlinewidth stroke
  grestore
} bd
/QT {
/Y22 exch store
/X22 exch store
/Y21 exch store
/X21 exch store
currentpoint
/Y21 load 2 mul add 3 div exch
/X21 load 2 mul add 3 div exch
/X21 load 2 mul /X22 load add 3 div
/Y21 load 2 mul /Y22 load add 3 div
/X22 load /Y22 load curveto
} bd
/SSPD {
dup length /d exch dict def
{
/v exch def
/k exch def
currentpagedevice k known {
/cpdv currentpagedevice k get def
v cpdv ne {
/upd false def
/nullv v type /nulltype eq def
/nullcpdv cpdv type /nulltype eq def
nullv nullcpdv or
{
/upd true def
} {
/sametype v type cpdv type eq def
sametype {
v type /arraytype eq {
/vlen v length def
/cpdvlen cpdv length def
vlen cpdvlen eq {
0 1 vlen 1 sub {
/i exch def
/obj v i get def
/cpdobj cpdv i get def
obj cpdobj ne {
/upd true def
exit
} if
} for
} {
/upd true def
} ifelse
} {
v type /dicttype eq {
v {
/dv exch def
/dk exch def
/cpddv cpdv dk get def
dv cpddv ne {
/upd true def
exit
} if
} forall
} {
/upd true def
} ifelse
} ifelse
} if
} ifelse
upd true eq {
d k v put
} if
} if
} if
} forall
d length 0 gt {
d setpagedevice
} if
} bd
/RE { % /NewFontName [NewEncodingArray] /FontName RE -
  findfont dup length dict begin
  {
    1 index /FID ne
    {def} {pop pop} ifelse
  } forall
  /Encoding exch def
  /FontName 1 index def
  currentdict definefont pop
  end
} bind def
%%EndResource
%%BeginResource: procset (Apache XML Graphics EPS ProcSet) 1.0 0
%%Version: 1.0 0
%%Copyright: (Copyright 2002-2003 The Apache Software Foundation. License terms: http://www.apache.org/licenses/LICENSE-2.0)
/BeginEPSF { %def
/b4_Inc_state save def         % Save state for cleanup
/dict_count countdictstack def % Count objects on dict stack
/op_count count 1 sub def      % Count objects on operand stack
userdict begin                 % Push userdict on dict stack
/showpage { } def              % Redefine showpage, { } = null proc
0 setgray 0 setlinecap         % Prepare graphics state
1 setlinewidth 0 setlinejoin
10 setmiterlimit [ ] 0 setdash newpath
/languagelevel where           % If level not equal to 1 then
{pop languagelevel             % set strokeadjust and
1 ne                           % overprint to their defaults.
{false setstrokeadjust false setoverprint
} if
} if
} bd
/EndEPSF { %def
count op_count sub {pop} repeat            % Clean up stacks
countdictstack dict_count sub {end} repeat
b4_Inc_state restore
} bd
%%EndResource
%FOPBeginFontDict
%%IncludeResource: font Courier-Oblique
%%IncludeResource: font Courier-BoldOblique
%%IncludeResource: font Courier-Bold
%%IncludeResource: font ZapfDingbats
%%IncludeResource: font Symbol
%%IncludeResource: font Helvetica
%%IncludeResource: font Helvetica-Oblique
%%IncludeResource: font Helvetica-Bold
%%IncludeResource: font Helvetica-BoldOblique
%%IncludeResource: font Times-Roman
%%IncludeResource: font Times-Italic
%%IncludeResource: font Times-Bold
%%IncludeResource: font Times-BoldItalic
%%IncludeResource: font Courier
%FOPEndFontDict
%%BeginResource: encoding WinAnsiEncoding
/WinAnsiEncoding [
/.notdef /.notdef /.notdef /.notdef /.notdef
/.notdef /.notdef /.notdef /.notdef /.notdef
/.notdef /.notdef /.notdef /.notdef /.notdef
/.notdef /.notdef /.notdef /.notdef /.notdef
/.notdef /.notdef /.notdef /.notdef /.notdef
/.notdef /.notdef /.notdef /.notdef /.notdef
/.notdef /.notdef /space /exclam /quotedbl
/numbersign /dollar /percent /ampersand /quotesingle
/parenleft /parenright /asterisk /plus /comma
/hyphen /period /slash /zero /one
/two /three /four /five /six
/seven /eight /nine /colon /semicolon
/less /equal /greater /question /at
/A /B /C /D /E
/F /G /H /I /J
/K /L /M /N /O
/P /Q /R /S /T
/U /V /W /X /Y
/Z /bracketleft /backslash /bracketright /asciicircum
/underscore /quoteleft /a /b /c
/d /e /f /g /h
/i /j /k /l /m
/n /o /p /q /r
/s /t /u /v /w
/x /y /z /braceleft /bar
/braceright /asciitilde /bullet /Euro /bullet
/quotesinglbase /florin /quotedblbase /ellipsis /dagger
/daggerdbl /circumflex /perthousand /Scaron /guilsinglleft
/OE /bullet /Zcaron /bullet /bullet
/quoteleft /quoteright /quotedblleft /quotedblright /bullet
/endash /emdash /asciitilde /trademark /scaron
/guilsinglright /oe /bullet /zcaron /Ydieresis
/space /exclamdown /cent /sterling /currency
/yen /brokenbar /section /dieresis /copyright
/ordfeminine /guillemotleft /logicalnot /sfthyphen /registered
/macron /degree /plusminus /twosuperior /threesuperior
/acute /mu /paragraph /middot /cedilla
/onesuperior /ordmasculine /guillemotright /onequarter /onehalf
/threequarters /questiondown /Agrave /Aacute /Acircumflex
/Atilde /Adieresis /Aring /AE /Ccedilla
/Egrave /Eacute /Ecircumflex /Edieresis /Igrave
/Iacute /Icircumflex /Idieresis /Eth /Ntilde
/Ograve /Oacute /Ocircumflex /Otilde /Odieresis
/multiply /Oslash /Ugrave /Uacute /Ucircumflex
/Udieresis /Yacute /Thorn /germandbls /agrave
/aacute /acircumflex /atilde /adieresis /aring
/ae /ccedilla /egrave /eacute /ecircumflex
/edieresis /igrave /iacute /icircumflex /idieresis
/eth /ntilde /ograve /oacute /ocircumflex
/otilde /odieresis /divide /oslash /ugrave
/uacute /ucircumflex /udieresis /yacute /thorn
/ydieresis
] def
%%EndResource
%FOPBeginFontReencode
/Courier-Oblique findfont
dup length dict begin
  {1 index /FID ne {def} {pop pop} ifelse} forall
  /Encoding WinAnsiEncoding def
  currentdict
end
/Courier-Oblique exch definefont pop
/Courier-BoldOblique findfont
dup length dict begin
  {1 index /FID ne {def} {pop pop} ifelse} forall
  /Encoding WinAnsiEncoding def
  currentdict
end
/Courier-BoldOblique exch definefont pop
/Courier-Bold findfont
dup length dict begin
  {1 index /FID ne {def} {pop pop} ifelse} forall
  /Encoding WinAnsiEncoding def
  currentdict
end
/Courier-Bold exch definefont pop
/Helvetica findfont
dup length dict begin
  {1 index /FID ne {def} {pop pop} ifelse} forall
  /Encoding WinAnsiEncoding def
  currentdict
end
/Helvetica exch definefont pop
/Helvetica-Oblique findfont
dup length dict begin
  {1 index /FID ne {def} {pop pop} ifelse} forall
  /Encoding WinAnsiEncoding def
  currentdict
end
/Helvetica-Oblique exch definefont pop
/Helvetica-Bold findfont
dup length dict begin
  {1 index /FID ne {def} {pop pop} ifelse} forall
  /Encoding WinAnsiEncoding def
  currentdict
end
/Helvetica-Bold exch definefont pop
/Helvetica-BoldOblique findfont
dup length dict begin
  {1 index /FID ne {def} {pop pop} ifelse} forall
  /Encoding WinAnsiEncoding def
  currentdict
end
/Helvetica-BoldOblique exch definefont pop
/Times-Roman findfont
dup length dict begin
  {1 index /FID ne {def} {pop pop} ifelse} forall
  /Encoding WinAnsiEncoding def
  currentdict
end
/Times-Roman exch definefont pop
/Times-Italic findfont
dup length dict begin
  {1 index /FID ne {def} {pop pop} ifelse} forall
  /Encoding WinAnsiEncoding def
  currentdict
end
/Times-Italic exch definefont pop
/Times-Bold findfont
dup length dict begin
  {1 index /FID ne {def} {pop pop} ifelse} forall
  /Encoding WinAnsiEncoding def
  currentdict
end
/Times-Bold exch definefont pop
/Times-BoldItalic findfont
dup length dict begin
  {1 index /FID ne {def} {pop pop} ifelse} forall
  /Encoding WinAnsiEncoding def
  currentdict
end
/Times-BoldItalic exch definefont pop
/Courier findfont
dup length dict begin
  {1 index /FID ne {def} {pop pop} ifelse} forall
  /Encoding WinAnsiEncoding def
  currentdict
end
/Courier exch definefont pop
%FOPEndFontReencode
%%EndProlog
%%Page: 1 1
%%PageBoundingBox: 0 0 608 600
%%BeginPageSetup
[1 0 0 -1 0 600] CT
%%EndPageSetup
GS
[0.75 0 0 0.75 0 0] CT
1 GC
N
0 0 810 800 re
f
GR
GS
[0.75 0 0 0.75 0 0] CT
1 GC
N
0 0 810 800 re
f
GR
GS
[0.75 0 0 0.75 0 0] CT
1 GC
N
137 711 M
733 711 L
733 60 L
137 60 L
cp
f
GR
GS
[0.75 0 0 0.75 0 0] CT
2 setlinecap
1 LJ
2.667 LW
N
137 711 M
733 711 L
S
GR
GS
[0.75 0 0 0.75 0 0] CT
2 setlinecap
1 LJ
2.667 LW
N
137 60 M
733 60 L
S
GR
GS
[0.75 0 0 0.75 0 0] CT
2 setlinecap
1 LJ
2.667 LW
N
140.348 711 M
140.348 704.49 L
S
GR
GS
[0.75 0 0 0.75 0 0] CT
2 setlinecap
1 LJ
2.667 LW
N
307.764 711 M
307.764 704.49 L
S
GR
GS
[0.75 0 0 0.75 0 0] CT
2 setlinecap
1 LJ
2.667 LW
N
475.18 711 M
475.18 704.49 L
S
GR
GS
[0.75 0 0 0.75 0 0] CT
2 setlinecap
1 LJ
2.667 LW
N
642.596 711 M
642.596 704.49 L
S
GR
GS
[0.75 0 0 0.75 0 0] CT
2 setlinecap
1 LJ
2.667 LW
N
140.348 60 M
140.348 66.51 L
S
GR
GS
[0.75 0 0 0.75 0 0] CT
2 setlinecap
1 LJ
2.667 LW
N
307.764 60 M
307.764 66.51 L
S
GR
GS
[0.75 0 0 0.75 0 0] CT
2 setlinecap
1 LJ
2.667 LW
N
475.18 60 M
475.18 66.51 L
S
GR
GS
[0.75 0 0 0.75 0 0] CT
2 setlinecap
1 LJ
2.667 LW
N
642.596 60 M
642.596 66.51 L
S
GR
GS
[0.75 0 0 0.75 105.26123 540.25003] CT
/Times-Roman 33.333 F
GS
[1 0 0 1 0 0] CT
-8.5 31 moveto 
1 -1 scale
(0) t 
GR
GR
GS
[0.75 0 0 0.75 230.82303 540.25003] CT
/Times-Roman 33.333 F
GS
[1 0 0 1 0 0] CT
-17 31 moveto 
1 -1 scale
(50) t 
GR
GR
GS
[0.75 0 0 0.75 356.38483 540.25003] CT
/Times-Roman 33.333 F
GS
[1 0 0 1 0 0] CT
-25 31 moveto 
1 -1 scale
(100) t 
GR
GR
GS
[0.75 0 0 0.75 481.94664 540.25003] CT
/Times-Roman 33.333 F
GS
[1 0 0 1 0 0] CT
-25 31 moveto 
1 -1 scale
(150) t 
GR
GR
GS
[0.75 0 0 0.75 326.25021 570] CT
N
-25.576 28 M
-25.576 26.844 L
-22.013 26.844 -22.013 25.797 QT
-22.013 7.672 L
-22.013 6.625 -25.576 6.625 QT
-25.576 5.453 L
-15.388 5.453 L
-15.388 6.625 L
-18.935 6.625 -18.935 7.672 QT
-18.935 25.797 L
-18.935 26.844 -15.388 26.844 QT
-15.388 28 L
-25.576 28 L
cp
f
GR
GS
[0.75 0 0 0.75 326.25021 570] CT
N
-11.023 24.031 M
-11.023 14.937 L
-13.773 14.937 L
-13.773 14.078 L
-11.617 14.078 -10.601 12.062 QT
-9.586 10.047 -9.586 7.703 QT
-8.633 7.703 L
-8.633 13.766 L
-3.976 13.766 L
-3.976 14.937 L
-8.633 14.937 L
-8.633 23.969 L
-8.633 25.344 -8.172 26.375 QT
-7.711 27.406 -6.523 27.406 QT
-5.398 27.406 -4.898 26.32 QT
-4.398 25.234 -4.398 23.969 QT
-4.398 22.016 L
-3.445 22.016 L
-3.445 24.031 L
-3.445 25.062 -3.82 26.07 QT
-4.195 27.078 -4.937 27.726 QT
-5.679 28.375 -6.742 28.375 QT
-8.726 28.375 -9.875 27.187 QT
-11.023 26 -11.023 24.031 QT
cp
f
GR
GS
[0.75 0 0 0.75 326.25021 570] CT
N
6.784 28.375 M
4.768 28.375 3.088 27.32 QT
1.409 26.266 0.448 24.5 QT
-0.513 22.734 -0.513 20.766 QT
-0.513 18.828 0.362 17.086 QT
1.237 15.344 2.807 14.273 QT
4.377 13.203 6.315 13.203 QT
7.83 13.203 8.948 13.711 QT
10.065 14.219 10.791 15.125 QT
11.518 16.031 11.893 17.258 QT
12.268 18.484 12.268 19.937 QT
12.268 20.375 11.924 20.375 QT
2.362 20.375 L
2.362 20.734 L
2.362 23.469 3.471 25.437 QT
4.58 27.406 7.08 27.406 QT
8.08 27.406 8.948 26.953 QT
9.815 26.5 10.448 25.695 QT
11.08 24.891 11.315 23.969 QT
11.346 23.859 11.432 23.773 QT
11.518 23.687 11.627 23.687 QT
11.924 23.687 L
12.268 23.687 12.268 24.094 QT
11.799 25.969 10.252 27.172 QT
8.705 28.375 6.784 28.375 QT
cp
2.393 19.562 M
9.924 19.562 L
9.924 18.312 9.58 17.039 QT
9.237 15.766 8.432 14.922 QT
7.627 14.078 6.315 14.078 QT
4.44 14.078 3.416 15.828 QT
2.393 17.578 2.393 19.562 QT
cp
f
GR
GS
[0.75 0 0 0.75 326.25021 570] CT
N
14.239 28 M
14.239 26.844 L
15.364 26.844 16.091 26.664 QT
16.817 26.484 16.817 25.797 QT
16.817 16.781 L
16.817 15.906 16.552 15.508 QT
16.286 15.109 15.786 15.023 QT
15.286 14.937 14.239 14.937 QT
14.239 13.766 L
18.958 13.422 L
18.958 16.641 L
19.489 15.203 20.473 14.312 QT
21.458 13.422 22.848 13.422 QT
23.833 13.422 24.606 14 QT
25.38 14.578 25.38 15.531 QT
25.38 16.125 24.958 16.57 QT
24.536 17.016 23.895 17.016 QT
23.286 17.016 22.856 16.578 QT
22.427 16.141 22.427 15.531 QT
22.427 14.641 23.052 14.266 QT
22.848 14.266 L
21.52 14.266 20.677 15.234 QT
19.833 16.203 19.473 17.641 QT
19.114 19.078 19.114 20.375 QT
19.114 25.797 L
19.114 26.844 22.317 26.844 QT
22.317 28 L
14.239 28 L
cp
f
GR
GS
[0.75 0 0 0.75 0 0] CT
2 setlinecap
1 LJ
2.667 LW
N
137 711 M
137 60 L
S
GR
GS
[0.75 0 0 0.75 0 0] CT
2 setlinecap
1 LJ
2.667 LW
N
733 711 M
733 60 L
S
GR
GS
[0.75 0 0 0.75 0 0] CT
2 setlinecap
1 LJ
2.667 LW
N
137 553.182 M
143.51 553.182 L
S
GR
GS
[0.75 0 0 0.75 0 0] CT
2 setlinecap
1 LJ
2.667 LW
N
137 158.636 M
143.51 158.636 L
S
GR
GS
[0.75 0 0 0.75 0 0] CT
2 setlinecap
1 LJ
2.667 LW
N
733 553.182 M
726.49 553.182 L
S
GR
GS
[0.75 0 0 0.75 0 0] CT
2 setlinecap
1 LJ
2.667 LW
N
733 158.636 M
726.49 158.636 L
S
GR
GS
[0.75 0 0 0.75 53.25 427.5] CT
/Times-Roman 33.333 F
GS
[1 0 0 1 0 0] CT
0 0 moveto 
1 -1 scale
(10) t 
GR
GR
GS
[0.75 0 0 0.75 78.75 415.5] CT
/Times-Roman 26.667 F
GS
[1 0 0 1 0 0] CT
0 0 moveto 
1 -1 scale
(-4) t 
GR
GR
GS
[0.75 0 0 0.75 53.25 132] CT
/Times-Roman 33.333 F
GS
[1 0 0 1 0 0] CT
0 0 moveto 
1 -1 scale
(10) t 
GR
GR
GS
[0.75 0 0 0.75 78.75 120] CT
/Times-Roman 26.667 F
GS
[1 0 0 1 0 0] CT
0 0 moveto 
1 -1 scale
(-2) t 
GR
GR
GS
[0.74972 -0.02055 0.02055 0.74972 49.48452 289.12477] CT
N
-31.532 -9.422 M
-31.532 -10.594 -30.68 -11.477 QT
-29.829 -12.359 -28.657 -12.719 QT
-29.313 -13.219 -29.657 -13.977 QT
-30.001 -14.734 -30.001 -15.594 QT
-30.001 -17.141 -29.016 -18.328 QT
-30.532 -19.813 -30.532 -21.734 QT
-30.532 -22.766 -30.094 -23.664 QT
-29.657 -24.563 -28.86 -25.227 QT
-28.063 -25.891 -27.102 -26.234 QT
-26.141 -26.578 -25.126 -26.578 QT
-23.157 -26.578 -21.594 -25.438 QT
-20.923 -26.156 -19.993 -26.555 QT
-19.063 -26.953 -18.063 -26.953 QT
-17.36 -26.953 -16.907 -26.445 QT
-16.454 -25.938 -16.454 -25.234 QT
-16.454 -24.828 -16.758 -24.524 QT
-17.063 -24.219 -17.469 -24.219 QT
-17.891 -24.219 -18.196 -24.524 QT
-18.501 -24.828 -18.501 -25.234 QT
-18.501 -25.844 -18.094 -26.078 QT
-19.798 -26.078 -21.032 -24.906 QT
-20.438 -24.313 -20.071 -23.453 QT
-19.704 -22.594 -19.704 -21.734 QT
-19.704 -20.328 -20.477 -19.211 QT
-21.251 -18.094 -22.516 -17.469 QT
-23.782 -16.844 -25.126 -16.844 QT
-26.923 -16.844 -28.423 -17.828 QT
-28.891 -17.188 -28.891 -16.391 QT
-28.891 -15.516 -28.321 -14.859 QT
-27.751 -14.203 -26.876 -14.203 QT
-24.173 -14.203 L
-22.204 -14.203 -20.626 -13.852 QT
-19.048 -13.5 -17.977 -12.438 QT
-16.907 -11.375 -16.907 -9.422 QT
-16.907 -7.969 -18.133 -7.008 QT
-19.36 -6.047 -21.055 -5.625 QT
-22.751 -5.203 -24.204 -5.203 QT
-25.673 -5.203 -27.376 -5.625 QT
-29.079 -6.047 -30.305 -7.008 QT
-31.532 -7.969 -31.532 -9.422 QT
cp
-29.688 -9.422 M
-29.688 -8.313 -28.782 -7.563 QT
-27.876 -6.813 -26.602 -6.453 QT
-25.329 -6.094 -24.204 -6.094 QT
-23.094 -6.094 -21.821 -6.453 QT
-20.548 -6.813 -19.649 -7.563 QT
-18.751 -8.313 -18.751 -9.422 QT
-18.751 -11.141 -20.337 -11.649 QT
-21.923 -12.156 -24.173 -12.156 QT
-26.876 -12.156 L
-27.641 -12.156 -28.274 -11.797 QT
-28.907 -11.438 -29.298 -10.781 QT
-29.688 -10.125 -29.688 -9.422 QT
cp
-25.126 -17.734 M
-22.313 -17.734 -22.313 -21.734 QT
-22.313 -23.453 -22.915 -24.578 QT
-23.516 -25.703 -25.126 -25.703 QT
-26.735 -25.703 -27.329 -24.578 QT
-27.923 -23.453 -27.923 -21.734 QT
-27.923 -20.641 -27.696 -19.75 QT
-27.469 -18.859 -26.86 -18.297 QT
-26.251 -17.734 -25.126 -17.734 QT
cp
f
GR
GS
[0.74972 -0.02055 0.02055 0.74972 49.48452 289.12477] CT
N
-14.928 -12 M
-14.928 -13.156 L
-13.803 -13.156 -13.076 -13.336 QT
-12.35 -13.516 -12.35 -14.203 QT
-12.35 -23.219 L
-12.35 -24.094 -12.615 -24.492 QT
-12.881 -24.891 -13.381 -24.977 QT
-13.881 -25.063 -14.928 -25.063 QT
-14.928 -26.234 L
-10.209 -26.578 L
-10.209 -23.359 L
-9.678 -24.797 -8.693 -25.688 QT
-7.709 -26.578 -6.318 -26.578 QT
-5.334 -26.578 -4.56 -26 QT
-3.787 -25.422 -3.787 -24.469 QT
-3.787 -23.875 -4.209 -23.43 QT
-4.631 -22.984 -5.271 -22.984 QT
-5.881 -22.984 -6.31 -23.422 QT
-6.74 -23.859 -6.74 -24.469 QT
-6.74 -25.359 -6.115 -25.734 QT
-6.318 -25.734 L
-7.646 -25.734 -8.49 -24.766 QT
-9.334 -23.797 -9.693 -22.359 QT
-10.053 -20.922 -10.053 -19.625 QT
-10.053 -14.203 L
-10.053 -13.156 -6.85 -13.156 QT
-6.85 -12 L
-14.928 -12 L
cp
f
GR
GS
[0.74972 -0.02055 0.02055 0.74972 49.48452 289.12477] CT
N
-1.403 -15.234 M
-1.403 -17.203 0.144 -18.438 QT
1.69 -19.672 3.854 -20.18 QT
6.019 -20.688 7.972 -20.688 QT
7.972 -22.031 L
7.972 -22.984 7.55 -23.883 QT
7.128 -24.781 6.339 -25.352 QT
5.55 -25.922 4.597 -25.922 QT
2.409 -25.922 1.269 -24.938 QT
1.894 -24.938 2.308 -24.461 QT
2.722 -23.984 2.722 -23.359 QT
2.722 -22.703 2.253 -22.234 QT
1.784 -21.766 1.144 -21.766 QT
0.472 -21.766 0.003 -22.234 QT
-0.466 -22.703 -0.466 -23.359 QT
-0.466 -25.094 1.12 -25.945 QT
2.706 -26.797 4.597 -26.797 QT
5.94 -26.797 7.292 -26.219 QT
8.644 -25.641 9.503 -24.578 QT
10.362 -23.516 10.362 -22.109 QT
10.362 -14.672 L
10.362 -14.031 10.636 -13.492 QT
10.909 -12.953 11.503 -12.953 QT
12.05 -12.953 12.315 -13.5 QT
12.581 -14.047 12.581 -14.672 QT
12.581 -16.781 L
13.55 -16.781 L
13.55 -14.672 L
13.55 -13.938 13.159 -13.266 QT
12.769 -12.594 12.12 -12.203 QT
11.472 -11.813 10.706 -11.813 QT
9.737 -11.813 9.034 -12.563 QT
8.331 -13.313 8.253 -14.344 QT
7.644 -13.094 6.456 -12.359 QT
5.269 -11.625 3.909 -11.625 QT
2.644 -11.625 1.433 -12 QT
0.222 -12.375 -0.591 -13.172 QT
-1.403 -13.969 -1.403 -15.234 QT
cp
1.269 -15.234 M
1.269 -14.078 2.12 -13.289 QT
2.972 -12.5 4.128 -12.5 QT
5.19 -12.5 6.065 -13.031 QT
6.94 -13.563 7.456 -14.484 QT
7.972 -15.406 7.972 -16.422 QT
7.972 -19.844 L
6.472 -19.844 4.901 -19.352 QT
3.331 -18.859 2.3 -17.813 QT
1.269 -16.766 1.269 -15.234 QT
cp
f
GR
GS
[0.74972 -0.02055 0.02055 0.74972 49.48452 289.12477] CT
N
21.998 -11.625 M
20.045 -11.625 18.435 -12.68 QT
16.826 -13.734 15.927 -15.461 QT
15.029 -17.188 15.029 -19.125 QT
15.029 -21.125 16.006 -22.836 QT
16.982 -24.547 18.654 -25.563 QT
20.326 -26.578 22.341 -26.578 QT
23.56 -26.578 24.638 -26.07 QT
25.716 -25.563 26.498 -24.672 QT
26.498 -31.531 L
26.498 -32.422 26.232 -32.813 QT
25.966 -33.203 25.474 -33.289 QT
24.982 -33.375 23.935 -33.375 QT
23.935 -34.547 L
28.826 -34.891 L
28.826 -15 L
28.826 -14.125 29.091 -13.734 QT
29.357 -13.344 29.849 -13.25 QT
30.341 -13.156 31.388 -13.156 QT
31.388 -12 L
26.404 -11.625 L
26.404 -13.703 L
25.56 -12.719 24.381 -12.172 QT
23.201 -11.625 21.998 -11.625 QT
cp
18.623 -14.875 M
19.185 -13.781 20.131 -13.141 QT
21.076 -12.5 22.185 -12.5 QT
23.56 -12.5 24.701 -13.289 QT
25.841 -14.078 26.404 -15.328 QT
26.404 -23.25 L
26.013 -23.969 25.427 -24.539 QT
24.841 -25.109 24.107 -25.422 QT
23.373 -25.734 22.56 -25.734 QT
20.826 -25.734 19.779 -24.758 QT
18.732 -23.781 18.318 -22.266 QT
17.904 -20.75 17.904 -19.094 QT
17.904 -17.766 18.037 -16.781 QT
18.17 -15.797 18.623 -14.875 QT
cp
f
GR
GS
[0.75 0 0 0.75 0 0] CT
[2 2] 0 setdash
2 LJ
2.667 LW
N
147.045 315.677 M
150.393 292.064 L
153.742 241.329 L
157.09 195.35 L
160.438 174.047 L
163.787 185.704 L
167.135 213.7 L
170.483 260.378 L
173.831 337.466 L
177.18 430.234 L
180.528 508.249 L
183.876 540.272 L
187.225 553.579 L
190.573 559.946 L
193.921 562.925 L
197.27 565.029 L
200.618 566.31 L
203.966 567.41 L
207.315 568.246 L
210.663 569.014 L
214.011 569.69 L
217.36 570.337 L
220.708 570.956 L
224.056 571.571 L
227.404 572.186 L
230.753 572.812 L
234.101 573.452 L
237.449 574.11 L
240.798 574.788 L
244.146 575.485 L
247.494 576.199 L
250.843 576.926 L
254.191 577.659 L
257.539 578.391 L
260.888 579.111 L
264.236 579.808 L
267.584 580.466 L
270.933 581.068 L
274.281 581.593 L
277.629 582.018 L
280.978 582.313 L
284.326 582.445 L
287.674 582.373 L
291.022 582.045 L
294.371 581.396 L
297.719 580.344 L
301.067 578.779 L
304.416 576.553 L
307.764 573.467 L
311.112 569.244 L
314.461 563.496 L
317.809 555.681 L
321.157 545.058 L
324.506 530.648 L
327.854 511.295 L
331.202 485.937 L
334.551 454.354 L
337.899 418.716 L
341.247 386.526 L
344.596 376.045 L
347.944 423.293 L
351.292 535.77 L
354.64 578.616 L
357.989 598.95 L
361.337 609.027 L
364.685 613.904 L
368.034 616.763 L
371.382 618.669 L
374.73 620.11 L
378.079 621.299 L
381.427 622.337 L
384.775 623.272 L
388.124 624.131 L
391.472 624.927 L
394.82 625.667 L
398.169 626.355 L
401.517 626.995 L
404.865 627.59 L
408.213 628.143 L
411.562 628.655 L
414.91 629.131 L
418.258 629.571 L
421.607 629.978 L
424.955 630.354 L
428.303 630.703 L
431.652 631.024 L
435 631.322 L
438.348 631.596 L
441.697 631.85 L
445.045 632.085 L
448.393 632.301 L
451.742 632.501 L
455.09 632.687 L
458.438 632.858 L
461.787 633.016 L
465.135 633.163 L
468.483 633.298 L
471.831 633.424 L
475.18 633.541 L
478.528 633.648 L
481.876 633.748 L
485.225 633.841 L
488.573 633.928 L
491.921 634.008 L
495.27 634.082 L
498.618 634.151 L
501.966 634.215 L
505.315 634.275 L
508.663 634.331 L
512.011 634.383 L
515.36 634.431 L
518.708 634.476 L
522.056 634.518 L
525.404 634.557 L
528.753 634.593 L
532.101 634.627 L
535.449 634.659 L
538.798 634.689 L
542.146 634.716 L
545.494 634.742 L
548.843 634.766 L
552.191 634.789 L
555.539 634.81 L
558.888 634.83 L
562.236 634.848 L
565.584 634.866 L
568.933 634.882 L
572.281 634.897 L
575.629 634.911 L
578.978 634.924 L
582.326 634.937 L
585.674 634.948 L
589.022 634.959 L
592.371 634.969 L
595.719 634.979 L
599.067 634.988 L
602.416 634.996 L
605.764 635.004 L
609.112 635.011 L
612.461 635.018 L
615.809 635.025 L
619.157 635.031 L
622.506 635.037 L
625.854 635.042 L
629.202 635.047 L
632.551 635.052 L
635.899 635.056 L
639.247 635.06 L
642.596 635.064 L
645.944 635.068 L
649.292 635.071 L
652.64 635.074 L
655.989 635.077 L
659.337 635.08 L
662.685 635.083 L
666.034 635.085 L
669.382 635.087 L
672.73 635.089 L
676.079 635.091 L
679.427 635.093 L
682.775 635.095 L
686.124 635.097 L
689.472 635.098 L
692.82 635.1 L
696.169 635.101 L
699.517 635.103 L
702.865 635.104 L
706.214 635.105 L
709.562 635.106 L
712.91 635.107 L
716.258 635.108 L
719.607 635.109 L
722.955 635.11 L
726.303 635.111 L
729.652 635.111 L
733 635.112 L
S
GR
GS
[0.75 0 0 0.75 0 0] CT
1 LJ
2.667 LW
N
147.045 214.313 M
150.393 172.537 L
153.742 147.607 L
157.09 114.553 L
160.438 164.849 L
163.787 252.833 L
167.135 253.294 L
170.483 282.047 L
173.831 285.982 L
177.18 296.389 L
180.528 341.224 L
183.876 396.812 L
187.225 452.434 L
190.573 405.771 L
193.921 463.156 L
197.27 437.799 L
200.618 403.652 L
203.966 468.695 L
207.315 440.698 L
210.663 472.871 L
214.011 485.86 L
217.36 494.386 L
220.708 545.523 L
224.056 503.688 L
227.404 496.375 L
230.753 538.209 L
234.101 517.746 L
237.449 551.485 L
240.798 538.138 L
244.146 535.321 L
247.494 554.31 L
250.843 545.305 L
254.191 532.01 L
257.539 562.461 L
260.888 553.849 L
264.236 556.448 L
267.584 552.558 L
270.933 544.042 L
274.281 538.476 L
277.629 528.294 L
280.978 503.252 L
284.326 487.289 L
287.674 453.263 L
291.022 414.444 L
294.371 376.163 L
297.719 354.238 L
301.067 390.14 L
304.416 395.413 L
307.764 466.41 L
311.112 544.224 L
314.461 569.948 L
317.809 603.304 L
321.157 586.081 L
324.506 596.283 L
327.854 593.486 L
331.202 570.518 L
334.551 613.422 L
337.899 585.134 L
341.247 614.602 L
344.596 626.442 L
347.944 614.628 L
351.292 620.08 L
354.64 627.141 L
357.989 621.676 L
361.337 617.623 L
364.685 632.405 L
368.034 631.846 L
371.382 628.892 L
374.73 633.01 L
378.079 632.704 L
381.427 631.655 L
384.775 633.644 L
388.124 632.964 L
391.472 632.656 L
394.82 634.135 L
398.169 633.881 L
401.517 633.36 L
404.865 634.304 L
408.213 634.037 L
411.562 633.858 L
414.91 634.495 L
418.258 634.488 L
421.607 633.961 L
424.955 634.445 L
428.303 634.892 L
431.652 634.358 L
435 633.901 L
438.348 635 L
441.697 635.134 L
445.045 635.134 L
S
GR
GS
[0.75 0 0 0.75 0 0] CT
1 GC
N
722 155 M
722 71 L
521 71 L
521 155 L
cp
f
GR
GS
[0.75 0 0 0.75 425.9594 69.65237] CT
N
1.859 8.469 M
1.859 0.766 L
1.859 0.5 2.141 0.5 QT
2.547 0.5 L
2.641 0.5 2.719 0.586 QT
2.797 0.672 2.797 0.766 QT
2.797 4 4.805 5.781 QT
6.813 7.562 10.078 7.562 QT
11.219 7.562 12.188 6.906 QT
13.156 6.25 13.695 5.172 QT
14.234 4.094 14.234 2.953 QT
14.234 1.953 13.828 1.016 QT
13.422 0.078 12.664 -0.617 QT
11.906 -1.313 10.953 -1.547 QT
6.672 -2.594 L
4.547 -3.156 3.203 -4.899 QT
1.859 -6.641 1.859 -8.828 QT
1.859 -10.531 2.727 -12.031 QT
3.594 -13.531 5.07 -14.399 QT
6.547 -15.266 8.25 -15.266 QT
11.547 -15.266 13.5 -13.031 QT
14.859 -15.172 L
14.953 -15.266 15.078 -15.266 QT
15.313 -15.266 L
15.406 -15.266 15.492 -15.195 QT
15.578 -15.125 15.578 -15 QT
15.578 -7.344 L
15.578 -7.047 15.313 -7.047 QT
14.922 -7.047 L
14.609 -7.047 14.609 -7.344 QT
14.609 -8.172 14.328 -9.172 QT
14.047 -10.172 13.547 -11.094 QT
13.047 -12.016 12.469 -12.594 QT
10.875 -14.203 8.25 -14.203 QT
7.125 -14.203 6.172 -13.633 QT
5.219 -13.063 4.656 -12.078 QT
4.094 -11.094 4.094 -10.016 QT
4.094 -8.594 4.969 -7.445 QT
5.844 -6.297 7.266 -5.922 QT
11.547 -4.875 L
12.609 -4.609 13.555 -3.945 QT
14.5 -3.281 15.133 -2.391 QT
15.766 -1.5 16.117 -0.414 QT
16.469 0.672 16.469 1.828 QT
16.469 3.609 15.648 5.203 QT
14.828 6.797 13.336 7.758 QT
11.844 8.719 10.078 8.719 QT
8.969 8.719 7.828 8.476 QT
6.688 8.234 5.719 7.742 QT
4.75 7.25 3.969 6.453 QT
2.578 8.625 L
2.484 8.719 2.344 8.719 QT
2.141 8.719 L
1.859 8.719 1.859 8.469 QT
cp
f
GR
GS
[0.75 0 0 0.75 425.9594 69.65237] CT
N
19.378 8 M
19.378 6.844 L
22.94 6.844 22.94 5.797 QT
22.94 -12.328 L
22.94 -13.375 19.378 -13.375 QT
19.378 -14.547 L
29.565 -14.547 L
29.565 -13.375 L
26.019 -13.375 26.019 -12.328 QT
26.019 5.797 L
26.019 6.844 29.565 6.844 QT
29.565 8 L
19.378 8 L
cp
f
GR
GS
[0.75 0 0 0.75 425.9594 69.65237] CT
N
32.415 8.469 M
32.415 0.766 L
32.415 0.5 32.696 0.5 QT
33.103 0.5 L
33.196 0.5 33.274 0.586 QT
33.353 0.672 33.353 0.766 QT
33.353 4 35.36 5.781 QT
37.368 7.562 40.634 7.562 QT
41.774 7.562 42.743 6.906 QT
43.712 6.25 44.251 5.172 QT
44.79 4.094 44.79 2.953 QT
44.79 1.953 44.384 1.016 QT
43.978 0.078 43.22 -0.617 QT
42.462 -1.313 41.509 -1.547 QT
37.228 -2.594 L
35.103 -3.156 33.759 -4.899 QT
32.415 -6.641 32.415 -8.828 QT
32.415 -10.531 33.282 -12.031 QT
34.149 -13.531 35.626 -14.399 QT
37.103 -15.266 38.806 -15.266 QT
42.103 -15.266 44.056 -13.031 QT
45.415 -15.172 L
45.509 -15.266 45.634 -15.266 QT
45.868 -15.266 L
45.962 -15.266 46.048 -15.195 QT
46.134 -15.125 46.134 -15 QT
46.134 -7.344 L
46.134 -7.047 45.868 -7.047 QT
45.478 -7.047 L
45.165 -7.047 45.165 -7.344 QT
45.165 -8.172 44.884 -9.172 QT
44.603 -10.172 44.103 -11.094 QT
43.603 -12.016 43.024 -12.594 QT
41.431 -14.203 38.806 -14.203 QT
37.681 -14.203 36.728 -13.633 QT
35.774 -13.063 35.212 -12.078 QT
34.649 -11.094 34.649 -10.016 QT
34.649 -8.594 35.524 -7.445 QT
36.399 -6.297 37.821 -5.922 QT
42.103 -4.875 L
43.165 -4.609 44.11 -3.945 QT
45.056 -3.281 45.688 -2.391 QT
46.321 -1.5 46.673 -0.414 QT
47.024 0.672 47.024 1.828 QT
47.024 3.609 46.204 5.203 QT
45.384 6.797 43.892 7.758 QT
42.399 8.719 40.634 8.719 QT
39.524 8.719 38.384 8.476 QT
37.243 8.234 36.274 7.742 QT
35.306 7.25 34.524 6.453 QT
33.134 8.625 L
33.04 8.719 32.899 8.719 QT
32.696 8.719 L
32.415 8.719 32.415 8.469 QT
cp
f
GR
GS
[0.75 0 0 0.75 0 0] CT
[2 2] 0 setdash
2 LJ
2.667 LW
N
524.995 92.87 M
564.949 92.87 L
S
GR
GS
[0.75 0 0 0.75 425.9594 99.84763] CT
N
1.063 8 M
1.063 6.844 L
4.016 6.844 4.688 4.891 QT
11.625 -15.266 L
11.719 -15.625 12.156 -15.625 QT
12.563 -15.625 L
13 -15.625 13.094 -15.266 QT
20.328 5.797 L
20.641 6.484 21.5 6.664 QT
22.359 6.844 23.656 6.844 QT
23.656 8 L
14.453 8 L
14.453 6.844 L
17.188 6.844 17.188 5.953 QT
17.188 5.797 L
15.406 0.641 L
7.391 0.641 L
5.906 4.891 L
5.875 5 5.875 5.234 QT
5.875 6.047 6.656 6.445 QT
7.438 6.844 8.344 6.844 QT
8.344 8 L
1.063 8 L
cp
7.781 -0.516 M
15.016 -0.516 L
11.391 -11.047 L
7.781 -0.516 L
cp
f
GR
GS
[0.75 0 0 0.75 425.9594 99.84763] CT
N
26.063 8 M
26.063 6.844 L
29.016 6.844 29.688 4.891 QT
36.625 -15.266 L
36.719 -15.625 37.156 -15.625 QT
37.563 -15.625 L
38 -15.625 38.094 -15.266 QT
45.328 5.797 L
45.641 6.484 46.5 6.664 QT
47.359 6.844 48.656 6.844 QT
48.656 8 L
39.453 8 L
39.453 6.844 L
42.188 6.844 42.188 5.953 QT
42.188 5.797 L
40.406 0.641 L
32.391 0.641 L
30.906 4.891 L
30.875 5 30.875 5.234 QT
30.875 6.047 31.656 6.445 QT
32.438 6.844 33.344 6.844 QT
33.344 8 L
26.063 8 L
cp
32.781 -0.516 M
40.016 -0.516 L
36.391 -11.047 L
32.781 -0.516 L
cp
f
GR
GS
[0.75 0 0 0.75 425.9594 99.84763] CT
N
50.375 1.891 M
50.375 -0.156 L
59.109 -0.156 L
59.109 1.891 L
50.375 1.891 L
cp
f
GR
GS
[0.75 0 0 0.75 425.9594 99.84763] CT
N
62.236 8 M
62.236 6.844 L
65.642 6.844 65.642 5.797 QT
65.642 -12.328 L
65.642 -13.375 62.236 -13.375 QT
62.236 -14.547 L
74.377 -14.547 L
76.049 -14.547 77.76 -13.891 QT
79.471 -13.234 80.588 -11.953 QT
81.705 -10.672 81.705 -8.938 QT
81.705 -6.922 80.057 -5.563 QT
78.408 -4.203 76.189 -3.781 QT
77.627 -3.781 79.142 -2.992 QT
80.658 -2.203 81.627 -0.883 QT
82.596 0.437 82.596 1.922 QT
82.596 3.734 81.525 5.117 QT
80.455 6.5 78.744 7.25 QT
77.033 8 75.314 8 QT
62.236 8 L
cp
68.502 5.797 M
68.502 6.5 68.908 6.672 QT
69.314 6.844 70.189 6.844 QT
74.377 6.844 L
75.658 6.844 76.767 6.164 QT
77.877 5.484 78.517 4.351 QT
79.158 3.219 79.158 1.922 QT
79.158 0.672 78.627 -0.531 QT
78.096 -1.734 77.103 -2.508 QT
76.111 -3.281 74.846 -3.281 QT
68.502 -3.281 L
68.502 5.797 L
cp
68.502 -4.156 M
73.455 -4.156 L
74.455 -4.156 75.33 -4.516 QT
76.205 -4.875 76.908 -5.563 QT
77.611 -6.25 77.986 -7.109 QT
78.361 -7.969 78.361 -8.938 QT
78.361 -9.797 78.08 -10.586 QT
77.799 -11.375 77.252 -12.016 QT
76.705 -12.656 75.963 -13.016 QT
75.221 -13.375 74.377 -13.375 QT
70.189 -13.375 L
69.58 -13.375 69.252 -13.328 QT
68.924 -13.281 68.713 -13.047 QT
68.502 -12.813 68.502 -12.328 QT
68.502 -4.156 L
cp
f
GR
GS
[0.75 0 0 0.75 425.9594 99.84763] CT
N
85.816 8 M
85.816 6.844 L
89.222 6.844 89.222 5.797 QT
89.222 -12.328 L
89.222 -13.375 85.816 -13.375 QT
85.816 -14.547 L
97.566 -14.547 L
99.363 -14.547 101.168 -13.805 QT
102.972 -13.063 104.144 -11.641 QT
105.316 -10.219 105.316 -8.344 QT
105.316 -6.5 104.136 -5.117 QT
102.957 -3.734 101.168 -3.016 QT
99.379 -2.297 97.566 -2.297 QT
92.285 -2.297 L
92.285 5.797 L
92.285 6.844 95.676 6.844 QT
95.676 8 L
85.816 8 L
cp
92.176 -3.281 M
96.66 -3.281 L
98.488 -3.281 99.613 -3.805 QT
100.738 -4.328 101.261 -5.43 QT
101.785 -6.531 101.785 -8.344 QT
101.785 -11.031 100.605 -12.203 QT
99.426 -13.375 96.66 -13.375 QT
93.863 -13.375 L
93.269 -13.375 92.933 -13.328 QT
92.597 -13.281 92.386 -13.047 QT
92.176 -12.813 92.176 -12.328 QT
92.176 -3.281 L
cp
f
GR
GS
[0.75 0 0 0.75 425.9594 99.84763] CT
N
115.001 4.469 M
116.189 5.922 117.908 6.742 QT
119.626 7.562 121.486 7.562 QT
123.33 7.562 124.83 6.633 QT
126.33 5.703 126.33 3.969 QT
126.33 1.203 L
126.33 0.156 122.205 0.156 QT
122.205 -1 L
131.658 -1 L
131.658 0.156 L
130.611 0.156 130.001 0.328 QT
129.392 0.5 129.392 1.203 QT
129.392 7.703 L
129.392 7.828 129.298 7.914 QT
129.205 8 129.095 8 QT
128.783 8 128.072 7.273 QT
127.361 6.547 126.939 5.984 QT
126.126 7.375 124.408 8.047 QT
122.689 8.719 120.798 8.719 QT
117.595 8.719 114.962 7.07 QT
112.33 5.422 110.798 2.656 QT
109.267 -0.109 109.267 -3.281 QT
109.267 -5.609 110.15 -7.82 QT
111.033 -10.031 112.619 -11.703 QT
114.205 -13.375 116.314 -14.32 QT
118.423 -15.266 120.798 -15.266 QT
122.501 -15.266 124.025 -14.531 QT
125.548 -13.797 126.751 -12.469 QT
128.658 -15.172 L
128.861 -15.266 128.892 -15.266 QT
129.126 -15.266 L
129.22 -15.266 129.306 -15.188 QT
129.392 -15.109 129.392 -15 QT
129.392 -6.078 L
129.392 -5.797 129.126 -5.797 QT
128.533 -5.797 L
128.22 -5.797 128.22 -6.078 QT
128.22 -7.031 127.845 -8.211 QT
127.47 -9.391 126.884 -10.445 QT
126.298 -11.5 125.517 -12.297 QT
123.673 -14.109 121.267 -14.109 QT
119.423 -14.109 117.751 -13.289 QT
116.08 -12.469 114.939 -11.016 QT
113.72 -9.469 113.251 -7.492 QT
112.783 -5.516 112.783 -3.281 QT
112.783 1.781 115.001 4.469 QT
cp
f
GR
GS
[0.75 0 0 0.75 425.9594 99.84763] CT
N
135.206 8 M
135.206 7.109 L
135.206 7.031 135.268 6.937 QT
140.393 1.266 L
141.565 0 142.284 -0.852 QT
143.003 -1.703 143.714 -2.813 QT
144.424 -3.922 144.839 -5.078 QT
145.253 -6.234 145.253 -7.516 QT
145.253 -8.875 144.753 -10.109 QT
144.253 -11.344 143.26 -12.078 QT
142.268 -12.813 140.862 -12.813 QT
139.424 -12.813 138.284 -11.953 QT
137.143 -11.094 136.674 -9.719 QT
136.799 -9.75 137.034 -9.75 QT
137.768 -9.75 138.292 -9.258 QT
138.815 -8.766 138.815 -7.969 QT
138.815 -7.219 138.292 -6.688 QT
137.768 -6.156 137.034 -6.156 QT
136.253 -6.156 135.729 -6.703 QT
135.206 -7.25 135.206 -7.969 QT
135.206 -9.203 135.674 -10.297 QT
136.143 -11.391 137.018 -12.234 QT
137.893 -13.078 139.003 -13.531 QT
140.112 -13.984 141.346 -13.984 QT
143.237 -13.984 144.862 -13.188 QT
146.487 -12.391 147.44 -10.93 QT
148.393 -9.469 148.393 -7.516 QT
148.393 -6.078 147.76 -4.789 QT
147.128 -3.5 146.151 -2.445 QT
145.174 -1.391 143.643 -0.055 QT
142.112 1.281 141.628 1.734 QT
137.878 5.328 L
141.065 5.328 L
143.393 5.328 144.964 5.289 QT
146.534 5.25 146.628 5.156 QT
147.018 4.75 147.424 2.125 QT
148.393 2.125 L
147.456 8 L
135.206 8 L
cp
f
GR
GS
[0.75 0 0 0.75 0 0] CT
1 LJ
2.667 LW
N
524.995 133.13 M
564.949 133.13 L
S
GR
GS
[0.75 0 0 0.75 0 0] CT
10.0 ML
2.667 LW
N
521 155 M
521 71 L
722 71 L
722 155 L
cp
S
GR
%%Trailer
%%Pages: 1
%%EOF
