%!PS-Adobe-3.0 EPSF-3.0
%%Creator: (MATLAB, The Mathworks, Inc. Version 9.5.0.944444 \(R2018b\). Operating System: Linux)
%%Title: Figures/H-HEX.eps
%%CreationDate: 2021-08-12T15:33:51
%%Pages: (atend)
%%BoundingBox:    10     8   551   565
%%LanguageLevel: 3
%%EndComments
%%BeginProlog
%%BeginResource: procset (Apache XML Graphics Std ProcSet) 1.2 0
%%Version: 1.2 0
%%Copyright: (Copyright 2001-2003,2010 The Apache Software Foundation. License terms: http://www.apache.org/licenses/LICENSE-2.0)
/bd{bind def}bind def
/ld{load def}bd
/GR/grestore ld
/GS/gsave ld
/RM/rmoveto ld
/C/curveto ld
/t/show ld
/L/lineto ld
/ML/setmiterlimit ld
/CT/concat ld
/f/fill ld
/N/newpath ld
/S/stroke ld
/CC/setcmykcolor ld
/A/ashow ld
/cp/closepath ld
/RC/setrgbcolor ld
/LJ/setlinejoin ld
/GC/setgray ld
/LW/setlinewidth ld
/M/moveto ld
/re {4 2 roll M
1 index 0 rlineto
0 exch rlineto
neg 0 rlineto
cp } bd
/_ctm matrix def
/_tm matrix def
/BT { _ctm currentmatrix pop matrix _tm copy pop 0 0 moveto } bd
/ET { _ctm setmatrix } bd
/iTm { _ctm setmatrix _tm concat } bd
/Tm { _tm astore pop iTm 0 0 moveto } bd
/ux 0.0 def
/uy 0.0 def
/F {
  /Tp exch def
  /Tf exch def
  Tf findfont Tp scalefont setfont
  /cf Tf def  /cs Tp def
} bd
/ULS {currentpoint /uy exch def /ux exch def} bd
/ULE {
  /Tcx currentpoint pop def
  gsave
  newpath
  cf findfont cs scalefont dup
  /FontMatrix get 0 get /Ts exch def /FontInfo get dup
  /UnderlinePosition get Ts mul /To exch def
  /UnderlineThickness get Ts mul /Tt exch def
  ux uy To add moveto  Tcx uy To add lineto
  Tt setlinewidth stroke
  grestore
} bd
/OLE {
  /Tcx currentpoint pop def
  gsave
  newpath
  cf findfont cs scalefont dup
  /FontMatrix get 0 get /Ts exch def /FontInfo get dup
  /UnderlinePosition get Ts mul /To exch def
  /UnderlineThickness get Ts mul /Tt exch def
  ux uy To add cs add moveto Tcx uy To add cs add lineto
  Tt setlinewidth stroke
  grestore
} bd
/SOE {
  /Tcx currentpoint pop def
  gsave
  newpath
  cf findfont cs scalefont dup
  /FontMatrix get 0 get /Ts exch def /FontInfo get dup
  /UnderlinePosition get Ts mul /To exch def
  /UnderlineThickness get Ts mul /Tt exch def
  ux uy To add cs 10 mul 26 idiv add moveto Tcx uy To add cs 10 mul 26 idiv add lineto
  Tt setlinewidth stroke
  grestore
} bd
/QT {
/Y22 exch store
/X22 exch store
/Y21 exch store
/X21 exch store
currentpoint
/Y21 load 2 mul add 3 div exch
/X21 load 2 mul add 3 div exch
/X21 load 2 mul /X22 load add 3 div
/Y21 load 2 mul /Y22 load add 3 div
/X22 load /Y22 load curveto
} bd
/SSPD {
dup length /d exch dict def
{
/v exch def
/k exch def
currentpagedevice k known {
/cpdv currentpagedevice k get def
v cpdv ne {
/upd false def
/nullv v type /nulltype eq def
/nullcpdv cpdv type /nulltype eq def
nullv nullcpdv or
{
/upd true def
} {
/sametype v type cpdv type eq def
sametype {
v type /arraytype eq {
/vlen v length def
/cpdvlen cpdv length def
vlen cpdvlen eq {
0 1 vlen 1 sub {
/i exch def
/obj v i get def
/cpdobj cpdv i get def
obj cpdobj ne {
/upd true def
exit
} if
} for
} {
/upd true def
} ifelse
} {
v type /dicttype eq {
v {
/dv exch def
/dk exch def
/cpddv cpdv dk get def
dv cpddv ne {
/upd true def
exit
} if
} forall
} {
/upd true def
} ifelse
} ifelse
} if
} ifelse
upd true eq {
d k v put
} if
} if
} if
} forall
d length 0 gt {
d setpagedevice
} if
} bd
/RE { % /NewFontName [NewEncodingArray] /FontName RE -
  findfont dup length dict begin
  {
    1 index /FID ne
    {def} {pop pop} ifelse
  } forall
  /Encoding exch def
  /FontName 1 index def
  currentdict definefont pop
  end
} bind def
%%EndResource
%%BeginResource: procset (Apache XML Graphics EPS ProcSet) 1.0 0
%%Version: 1.0 0
%%Copyright: (Copyright 2002-2003 The Apache Software Foundation. License terms: http://www.apache.org/licenses/LICENSE-2.0)
/BeginEPSF { %def
/b4_Inc_state save def         % Save state for cleanup
/dict_count countdictstack def % Count objects on dict stack
/op_count count 1 sub def      % Count objects on operand stack
userdict begin                 % Push userdict on dict stack
/showpage { } def              % Redefine showpage, { } = null proc
0 setgray 0 setlinecap         % Prepare graphics state
1 setlinewidth 0 setlinejoin
10 setmiterlimit [ ] 0 setdash newpath
/languagelevel where           % If level not equal to 1 then
{pop languagelevel             % set strokeadjust and
1 ne                           % overprint to their defaults.
{false setstrokeadjust false setoverprint
} if
} if
} bd
/EndEPSF { %def
count op_count sub {pop} repeat            % Clean up stacks
countdictstack dict_count sub {end} repeat
b4_Inc_state restore
} bd
%%EndResource
%FOPBeginFontDict
%%IncludeResource: font Courier-Oblique
%%IncludeResource: font Courier-BoldOblique
%%IncludeResource: font Courier-Bold
%%IncludeResource: font ZapfDingbats
%%IncludeResource: font Symbol
%%IncludeResource: font Helvetica
%%IncludeResource: font Helvetica-Oblique
%%IncludeResource: font Helvetica-Bold
%%IncludeResource: font Helvetica-BoldOblique
%%IncludeResource: font Times-Roman
%%IncludeResource: font Times-Italic
%%IncludeResource: font Times-Bold
%%IncludeResource: font Times-BoldItalic
%%IncludeResource: font Courier
%FOPEndFontDict
%%BeginResource: encoding WinAnsiEncoding
/WinAnsiEncoding [
/.notdef /.notdef /.notdef /.notdef /.notdef
/.notdef /.notdef /.notdef /.notdef /.notdef
/.notdef /.notdef /.notdef /.notdef /.notdef
/.notdef /.notdef /.notdef /.notdef /.notdef
/.notdef /.notdef /.notdef /.notdef /.notdef
/.notdef /.notdef /.notdef /.notdef /.notdef
/.notdef /.notdef /space /exclam /quotedbl
/numbersign /dollar /percent /ampersand /quotesingle
/parenleft /parenright /asterisk /plus /comma
/hyphen /period /slash /zero /one
/two /three /four /five /six
/seven /eight /nine /colon /semicolon
/less /equal /greater /question /at
/A /B /C /D /E
/F /G /H /I /J
/K /L /M /N /O
/P /Q /R /S /T
/U /V /W /X /Y
/Z /bracketleft /backslash /bracketright /asciicircum
/underscore /quoteleft /a /b /c
/d /e /f /g /h
/i /j /k /l /m
/n /o /p /q /r
/s /t /u /v /w
/x /y /z /braceleft /bar
/braceright /asciitilde /bullet /Euro /bullet
/quotesinglbase /florin /quotedblbase /ellipsis /dagger
/daggerdbl /circumflex /perthousand /Scaron /guilsinglleft
/OE /bullet /Zcaron /bullet /bullet
/quoteleft /quoteright /quotedblleft /quotedblright /bullet
/endash /emdash /asciitilde /trademark /scaron
/guilsinglright /oe /bullet /zcaron /Ydieresis
/space /exclamdown /cent /sterling /currency
/yen /brokenbar /section /dieresis /copyright
/ordfeminine /guillemotleft /logicalnot /sfthyphen /registered
/macron /degree /plusminus /twosuperior /threesuperior
/acute /mu /paragraph /middot /cedilla
/onesuperior /ordmasculine /guillemotright /onequarter /onehalf
/threequarters /questiondown /Agrave /Aacute /Acircumflex
/Atilde /Adieresis /Aring /AE /Ccedilla
/Egrave /Eacute /Ecircumflex /Edieresis /Igrave
/Iacute /Icircumflex /Idieresis /Eth /Ntilde
/Ograve /Oacute /Ocircumflex /Otilde /Odieresis
/multiply /Oslash /Ugrave /Uacute /Ucircumflex
/Udieresis /Yacute /Thorn /germandbls /agrave
/aacute /acircumflex /atilde /adieresis /aring
/ae /ccedilla /egrave /eacute /ecircumflex
/edieresis /igrave /iacute /icircumflex /idieresis
/eth /ntilde /ograve /oacute /ocircumflex
/otilde /odieresis /divide /oslash /ugrave
/uacute /ucircumflex /udieresis /yacute /thorn
/ydieresis
] def
%%EndResource
%FOPBeginFontReencode
/Courier-Oblique findfont
dup length dict begin
  {1 index /FID ne {def} {pop pop} ifelse} forall
  /Encoding WinAnsiEncoding def
  currentdict
end
/Courier-Oblique exch definefont pop
/Courier-BoldOblique findfont
dup length dict begin
  {1 index /FID ne {def} {pop pop} ifelse} forall
  /Encoding WinAnsiEncoding def
  currentdict
end
/Courier-BoldOblique exch definefont pop
/Courier-Bold findfont
dup length dict begin
  {1 index /FID ne {def} {pop pop} ifelse} forall
  /Encoding WinAnsiEncoding def
  currentdict
end
/Courier-Bold exch definefont pop
/Helvetica findfont
dup length dict begin
  {1 index /FID ne {def} {pop pop} ifelse} forall
  /Encoding WinAnsiEncoding def
  currentdict
end
/Helvetica exch definefont pop
/Helvetica-Oblique findfont
dup length dict begin
  {1 index /FID ne {def} {pop pop} ifelse} forall
  /Encoding WinAnsiEncoding def
  currentdict
end
/Helvetica-Oblique exch definefont pop
/Helvetica-Bold findfont
dup length dict begin
  {1 index /FID ne {def} {pop pop} ifelse} forall
  /Encoding WinAnsiEncoding def
  currentdict
end
/Helvetica-Bold exch definefont pop
/Helvetica-BoldOblique findfont
dup length dict begin
  {1 index /FID ne {def} {pop pop} ifelse} forall
  /Encoding WinAnsiEncoding def
  currentdict
end
/Helvetica-BoldOblique exch definefont pop
/Times-Roman findfont
dup length dict begin
  {1 index /FID ne {def} {pop pop} ifelse} forall
  /Encoding WinAnsiEncoding def
  currentdict
end
/Times-Roman exch definefont pop
/Times-Italic findfont
dup length dict begin
  {1 index /FID ne {def} {pop pop} ifelse} forall
  /Encoding WinAnsiEncoding def
  currentdict
end
/Times-Italic exch definefont pop
/Times-Bold findfont
dup length dict begin
  {1 index /FID ne {def} {pop pop} ifelse} forall
  /Encoding WinAnsiEncoding def
  currentdict
end
/Times-Bold exch definefont pop
/Times-BoldItalic findfont
dup length dict begin
  {1 index /FID ne {def} {pop pop} ifelse} forall
  /Encoding WinAnsiEncoding def
  currentdict
end
/Times-BoldItalic exch definefont pop
/Courier findfont
dup length dict begin
  {1 index /FID ne {def} {pop pop} ifelse} forall
  /Encoding WinAnsiEncoding def
  currentdict
end
/Courier exch definefont pop
%FOPEndFontReencode
%%EndProlog
%%Page: 1 1
%%PageBoundingBox: 0 0 608 600
%%BeginPageSetup
[1 0 0 -1 0 600] CT
%%EndPageSetup
GS
[0.75 0 0 0.75 0 0] CT
1 GC
N
0 0 810 800 re
f
GR
GS
[0.75 0 0 0.75 0 0] CT
1 GC
N
0 0 810 800 re
f
GR
GS
[0.75 0 0 0.75 0 0] CT
1 GC
N
110 711 M
733 711 L
733 60 L
110 60 L
cp
f
GR
GS
[0.75 0 0 0.75 0 0] CT
2 setlinecap
1 LJ
2.667 LW
N
110 711 M
733 711 L
S
GR
GS
[0.75 0 0 0.75 0 0] CT
2 setlinecap
1 LJ
2.667 LW
N
110 60 M
733 60 L
S
GR
GS
[0.75 0 0 0.75 0 0] CT
2 setlinecap
1 LJ
2.667 LW
N
113.54 711 M
113.54 704.49 L
S
GR
GS
[0.75 0 0 0.75 0 0] CT
2 setlinecap
1 LJ
2.667 LW
N
290.528 711 M
290.528 704.49 L
S
GR
GS
[0.75 0 0 0.75 0 0] CT
2 setlinecap
1 LJ
2.667 LW
N
467.517 711 M
467.517 704.49 L
S
GR
GS
[0.75 0 0 0.75 0 0] CT
2 setlinecap
1 LJ
2.667 LW
N
644.506 711 M
644.506 704.49 L
S
GR
GS
[0.75 0 0 0.75 0 0] CT
2 setlinecap
1 LJ
2.667 LW
N
113.54 60 M
113.54 66.51 L
S
GR
GS
[0.75 0 0 0.75 0 0] CT
2 setlinecap
1 LJ
2.667 LW
N
290.528 60 M
290.528 66.51 L
S
GR
GS
[0.75 0 0 0.75 0 0] CT
2 setlinecap
1 LJ
2.667 LW
N
467.517 60 M
467.517 66.51 L
S
GR
GS
[0.75 0 0 0.75 0 0] CT
2 setlinecap
1 LJ
2.667 LW
N
644.506 60 M
644.506 66.51 L
S
GR
GS
[0.75 0 0 0.75 85.15483 540.24998] CT
/Times-Roman 33.333 F
GS
[1 0 0 1 0 0] CT
-8.5 31 moveto 
1 -1 scale
(0) t 
GR
GR
GS
[0.75 0 0 0.75 217.89631 540.24998] CT
/Times-Roman 33.333 F
GS
[1 0 0 1 0 0] CT
-17 31 moveto 
1 -1 scale
(50) t 
GR
GR
GS
[0.75 0 0 0.75 350.63779 540.24998] CT
/Times-Roman 33.333 F
GS
[1 0 0 1 0 0] CT
-25 31 moveto 
1 -1 scale
(100) t 
GR
GR
GS
[0.75 0 0 0.75 483.37926 540.24998] CT
/Times-Roman 33.333 F
GS
[1 0 0 1 0 0] CT
-25 31 moveto 
1 -1 scale
(150) t 
GR
GR
GS
[0.75 0 0 0.75 316.12523 570] CT
N
-25.576 28 M
-25.576 26.844 L
-22.013 26.844 -22.013 25.797 QT
-22.013 7.672 L
-22.013 6.625 -25.576 6.625 QT
-25.576 5.453 L
-15.388 5.453 L
-15.388 6.625 L
-18.935 6.625 -18.935 7.672 QT
-18.935 25.797 L
-18.935 26.844 -15.388 26.844 QT
-15.388 28 L
-25.576 28 L
cp
f
GR
GS
[0.75 0 0 0.75 316.12523 570] CT
N
-11.023 24.031 M
-11.023 14.937 L
-13.773 14.937 L
-13.773 14.078 L
-11.617 14.078 -10.601 12.062 QT
-9.586 10.047 -9.586 7.703 QT
-8.633 7.703 L
-8.633 13.766 L
-3.976 13.766 L
-3.976 14.937 L
-8.633 14.937 L
-8.633 23.969 L
-8.633 25.344 -8.172 26.375 QT
-7.711 27.406 -6.523 27.406 QT
-5.398 27.406 -4.898 26.32 QT
-4.398 25.234 -4.398 23.969 QT
-4.398 22.016 L
-3.445 22.016 L
-3.445 24.031 L
-3.445 25.062 -3.82 26.07 QT
-4.195 27.078 -4.937 27.726 QT
-5.679 28.375 -6.742 28.375 QT
-8.726 28.375 -9.875 27.187 QT
-11.023 26 -11.023 24.031 QT
cp
f
GR
GS
[0.75 0 0 0.75 316.12523 570] CT
N
6.784 28.375 M
4.768 28.375 3.088 27.32 QT
1.409 26.266 0.448 24.5 QT
-0.513 22.734 -0.513 20.766 QT
-0.513 18.828 0.362 17.086 QT
1.237 15.344 2.807 14.273 QT
4.377 13.203 6.315 13.203 QT
7.83 13.203 8.948 13.711 QT
10.065 14.219 10.791 15.125 QT
11.518 16.031 11.893 17.258 QT
12.268 18.484 12.268 19.937 QT
12.268 20.375 11.924 20.375 QT
2.362 20.375 L
2.362 20.734 L
2.362 23.469 3.471 25.437 QT
4.58 27.406 7.08 27.406 QT
8.08 27.406 8.948 26.953 QT
9.815 26.5 10.448 25.695 QT
11.08 24.891 11.315 23.969 QT
11.346 23.859 11.432 23.773 QT
11.518 23.687 11.627 23.687 QT
11.924 23.687 L
12.268 23.687 12.268 24.094 QT
11.799 25.969 10.252 27.172 QT
8.705 28.375 6.784 28.375 QT
cp
2.393 19.562 M
9.924 19.562 L
9.924 18.312 9.58 17.039 QT
9.237 15.766 8.432 14.922 QT
7.627 14.078 6.315 14.078 QT
4.44 14.078 3.416 15.828 QT
2.393 17.578 2.393 19.562 QT
cp
f
GR
GS
[0.75 0 0 0.75 316.12523 570] CT
N
14.239 28 M
14.239 26.844 L
15.364 26.844 16.091 26.664 QT
16.817 26.484 16.817 25.797 QT
16.817 16.781 L
16.817 15.906 16.552 15.508 QT
16.286 15.109 15.786 15.023 QT
15.286 14.937 14.239 14.937 QT
14.239 13.766 L
18.958 13.422 L
18.958 16.641 L
19.489 15.203 20.473 14.312 QT
21.458 13.422 22.848 13.422 QT
23.833 13.422 24.606 14 QT
25.38 14.578 25.38 15.531 QT
25.38 16.125 24.958 16.57 QT
24.536 17.016 23.895 17.016 QT
23.286 17.016 22.856 16.578 QT
22.427 16.141 22.427 15.531 QT
22.427 14.641 23.052 14.266 QT
22.848 14.266 L
21.52 14.266 20.677 15.234 QT
19.833 16.203 19.473 17.641 QT
19.114 19.078 19.114 20.375 QT
19.114 25.797 L
19.114 26.844 22.317 26.844 QT
22.317 28 L
14.239 28 L
cp
f
GR
GS
[0.75 0 0 0.75 0 0] CT
2 setlinecap
1 LJ
2.667 LW
N
110 711 M
110 60 L
S
GR
GS
[0.75 0 0 0.75 0 0] CT
2 setlinecap
1 LJ
2.667 LW
N
733 711 M
733 60 L
S
GR
GS
[0.75 0 0 0.75 0 0] CT
2 setlinecap
1 LJ
2.667 LW
N
110 711 M
116.51 711 L
S
GR
GS
[0.75 0 0 0.75 0 0] CT
2 setlinecap
1 LJ
2.667 LW
N
110 602.5 M
116.51 602.5 L
S
GR
GS
[0.75 0 0 0.75 0 0] CT
2 setlinecap
1 LJ
2.667 LW
N
110 494 M
116.51 494 L
S
GR
GS
[0.75 0 0 0.75 0 0] CT
2 setlinecap
1 LJ
2.667 LW
N
110 385.5 M
116.51 385.5 L
S
GR
GS
[0.75 0 0 0.75 0 0] CT
2 setlinecap
1 LJ
2.667 LW
N
110 277 M
116.51 277 L
S
GR
GS
[0.75 0 0 0.75 0 0] CT
2 setlinecap
1 LJ
2.667 LW
N
110 168.5 M
116.51 168.5 L
S
GR
GS
[0.75 0 0 0.75 0 0] CT
2 setlinecap
1 LJ
2.667 LW
N
110 60 M
116.51 60 L
S
GR
GS
[0.75 0 0 0.75 0 0] CT
2 setlinecap
1 LJ
2.667 LW
N
733 711 M
726.49 711 L
S
GR
GS
[0.75 0 0 0.75 0 0] CT
2 setlinecap
1 LJ
2.667 LW
N
733 602.5 M
726.49 602.5 L
S
GR
GS
[0.75 0 0 0.75 0 0] CT
2 setlinecap
1 LJ
2.667 LW
N
733 494 M
726.49 494 L
S
GR
GS
[0.75 0 0 0.75 0 0] CT
2 setlinecap
1 LJ
2.667 LW
N
733 385.5 M
726.49 385.5 L
S
GR
GS
[0.75 0 0 0.75 0 0] CT
2 setlinecap
1 LJ
2.667 LW
N
733 277 M
726.49 277 L
S
GR
GS
[0.75 0 0 0.75 0 0] CT
2 setlinecap
1 LJ
2.667 LW
N
733 168.5 M
726.49 168.5 L
S
GR
GS
[0.75 0 0 0.75 0 0] CT
2 setlinecap
1 LJ
2.667 LW
N
733 60 M
726.49 60 L
S
GR
GS
[0.75 0 0 0.75 75.5 533.25] CT
/Times-Roman 33.333 F
GS
[1 0 0 1 0 0] CT
-70 12 moveto 
1 -1 scale
(-0.12) t 
GR
GR
GS
[0.75 0 0 0.75 75.5 451.875] CT
/Times-Roman 33.333 F
GS
[1 0 0 1 0 0] CT
-53 12 moveto 
1 -1 scale
(-0.1) t 
GR
GR
GS
[0.75 0 0 0.75 75.5 370.5] CT
/Times-Roman 33.333 F
GS
[1 0 0 1 0 0] CT
-70 12 moveto 
1 -1 scale
(-0.08) t 
GR
GR
GS
[0.75 0 0 0.75 75.5 289.125] CT
/Times-Roman 33.333 F
GS
[1 0 0 1 0 0] CT
-70 12 moveto 
1 -1 scale
(-0.06) t 
GR
GR
GS
[0.75 0 0 0.75 75.5 207.75] CT
/Times-Roman 33.333 F
GS
[1 0 0 1 0 0] CT
-70 12 moveto 
1 -1 scale
(-0.04) t 
GR
GR
GS
[0.75 0 0 0.75 75.5 126.375] CT
/Times-Roman 33.333 F
GS
[1 0 0 1 0 0] CT
-70 12 moveto 
1 -1 scale
(-0.02) t 
GR
GR
GS
[0.75 0 0 0.75 75.5 45] CT
/Times-Roman 33.333 F
GS
[1 0 0 1 0 0] CT
-17 12 moveto 
1 -1 scale
(0) t 
GR
GR
GS
[0.74972 -0.02055 0.02055 0.74972 19.56511 289.12477] CT
N
-11.484 -12 M
-11.484 -13.156 L
-8.078 -13.156 -8.078 -14.203 QT
-8.078 -32.328 L
-8.078 -33.375 -11.484 -33.375 QT
-11.484 -34.547 L
-1.609 -34.547 L
-1.609 -33.375 L
-5 -33.375 -5 -32.328 QT
-5 -24.313 L
4.719 -24.313 L
4.719 -32.328 L
4.719 -33.375 1.328 -33.375 QT
1.328 -34.547 L
11.187 -34.547 L
11.187 -33.375 L
7.797 -33.375 7.797 -32.328 QT
7.797 -14.203 L
7.797 -13.156 11.187 -13.156 QT
11.187 -12 L
1.328 -12 L
1.328 -13.156 L
4.719 -13.156 4.719 -14.203 QT
4.719 -23.156 L
-5 -23.156 L
-5 -14.203 L
-5 -13.156 -1.609 -13.156 QT
-1.609 -12 L
-11.484 -12 L
cp
f
GR
GS
[0.75 0 0 0.75 0 0] CT
[2 2] 0 setdash
2 LJ
2.667 LW
N
120.619 65.205 M
124.159 84.704 L
127.699 119.647 L
131.239 185.631 L
134.778 290.005 L
138.318 403.474 L
141.858 486.409 L
145.398 540.259 L
148.938 567.186 L
152.477 573.887 L
156.017 575.585 L
159.557 576.309 L
163.097 576.845 L
166.636 577.319 L
170.176 577.771 L
173.716 578.209 L
177.256 578.638 L
180.795 579.061 L
184.335 579.477 L
187.875 579.888 L
191.415 580.295 L
194.955 580.697 L
198.494 581.095 L
202.034 581.488 L
205.574 581.877 L
209.114 582.261 L
212.653 582.64 L
216.193 583.014 L
219.733 583.383 L
223.273 583.746 L
226.813 584.104 L
230.352 584.457 L
233.892 584.804 L
237.432 585.146 L
240.972 585.482 L
244.511 585.814 L
248.051 586.141 L
251.591 586.464 L
255.131 586.784 L
258.67 587.102 L
262.21 587.419 L
265.75 587.736 L
269.29 588.055 L
272.83 588.378 L
276.369 588.708 L
279.909 589.048 L
283.449 589.404 L
286.989 589.781 L
290.528 590.188 L
294.068 590.637 L
297.608 591.146 L
301.148 591.741 L
304.688 592.463 L
308.227 593.38 L
311.767 594.607 L
315.307 596.344 L
318.847 598.946 L
322.386 603.012 L
325.926 609.326 L
329.466 617.98 L
333.006 626.047 L
336.545 629.218 L
340.085 629.616 L
343.625 629.759 L
347.165 629.873 L
350.705 629.976 L
354.244 630.073 L
357.784 630.164 L
361.324 630.248 L
364.864 630.327 L
368.403 630.4 L
371.943 630.467 L
375.483 630.529 L
379.023 630.586 L
382.563 630.639 L
386.102 630.687 L
389.642 630.732 L
393.182 630.773 L
396.722 630.811 L
400.261 630.845 L
403.801 630.877 L
407.341 630.907 L
410.881 630.934 L
414.42 630.959 L
417.96 630.983 L
421.5 631.004 L
425.04 631.024 L
428.58 631.042 L
432.119 631.059 L
435.659 631.074 L
439.199 631.089 L
442.739 631.102 L
446.278 631.115 L
449.818 631.126 L
453.358 631.137 L
456.898 631.146 L
460.438 631.156 L
463.977 631.164 L
467.517 631.172 L
471.057 631.179 L
474.597 631.186 L
478.136 631.193 L
481.676 631.198 L
485.216 631.204 L
488.756 631.209 L
492.295 631.214 L
495.835 631.218 L
499.375 631.223 L
502.915 631.227 L
506.455 631.23 L
509.994 631.234 L
513.534 631.237 L
517.074 631.24 L
520.614 631.242 L
524.153 631.245 L
527.693 631.247 L
531.233 631.25 L
534.773 631.252 L
538.313 631.254 L
541.852 631.256 L
545.392 631.257 L
548.932 631.259 L
552.472 631.26 L
556.011 631.262 L
559.551 631.263 L
563.091 631.264 L
566.631 631.266 L
570.17 631.267 L
573.71 631.268 L
577.25 631.269 L
580.79 631.27 L
584.33 631.271 L
587.869 631.271 L
591.409 631.272 L
594.949 631.273 L
598.489 631.273 L
602.028 631.274 L
605.568 631.275 L
609.108 631.275 L
612.648 631.276 L
616.188 631.276 L
619.727 631.276 L
623.267 631.277 L
626.807 631.277 L
630.347 631.278 L
633.886 631.278 L
637.426 631.278 L
640.966 631.279 L
644.506 631.279 L
648.045 631.279 L
651.585 631.279 L
655.125 631.28 L
658.665 631.28 L
662.205 631.28 L
665.744 631.28 L
669.284 631.281 L
672.824 631.281 L
676.364 631.281 L
679.903 631.281 L
683.443 631.281 L
686.983 631.281 L
690.523 631.281 L
694.063 631.281 L
697.602 631.282 L
701.142 631.282 L
704.682 631.282 L
708.222 631.282 L
711.761 631.282 L
715.301 631.282 L
718.841 631.282 L
722.381 631.282 L
725.92 631.282 L
729.46 631.282 L
733 631.282 L
733.074 631.282 L
S
GR
GS
[0.75 0 0 0.75 0 0] CT
1 LJ
2.667 LW
N
120.619 143.068 M
124.159 292.295 L
127.699 418.863 L
131.239 449.305 L
134.778 478.473 L
138.318 534.003 L
141.858 537.087 L
145.398 543.91 L
148.938 544.382 L
152.477 552.271 L
156.017 558.659 L
159.557 565.73 L
163.097 569.429 L
166.636 570.481 L
170.176 573.617 L
173.716 574.738 L
177.256 574.787 L
180.795 577.395 L
184.335 577.469 L
187.875 579.152 L
191.415 580.15 L
194.955 581.349 L
198.494 582.273 L
202.034 582.629 L
205.574 583.272 L
209.114 584.01 L
212.653 584.02 L
216.193 585.011 L
219.733 585.595 L
223.273 586.21 L
226.813 586.773 L
230.352 587.134 L
233.892 587.55 L
237.432 588.155 L
240.972 588.789 L
244.511 589.477 L
248.051 590.03 L
251.591 590.632 L
255.131 591.463 L
258.67 592.365 L
262.21 593.42 L
265.75 595.218 L
269.29 597.752 L
272.83 601.611 L
276.369 607.916 L
279.909 617.224 L
283.449 626.551 L
286.989 627.245 L
290.528 628.795 L
294.068 629.564 L
297.608 629.872 L
301.148 630.137 L
304.688 630.2 L
308.227 630.303 L
311.767 630.372 L
315.307 630.383 L
318.847 630.587 L
322.386 630.597 L
325.926 630.7 L
329.466 630.826 L
333.006 630.845 L
336.545 630.908 L
340.085 630.968 L
343.625 630.972 L
347.165 630.978 L
350.705 631.058 L
354.244 631.059 L
357.784 631.073 L
361.324 631.113 L
S
GR
GS
[0.75 0 0 0.75 0 0] CT
1 GC
N
722 155 M
722 71 L
521 71 L
521 155 L
cp
f
GR
GS
[0.75 0 0 0.75 425.9594 69.65237] CT
N
1.859 8.469 M
1.859 0.766 L
1.859 0.5 2.141 0.5 QT
2.547 0.5 L
2.641 0.5 2.719 0.586 QT
2.797 0.672 2.797 0.766 QT
2.797 4 4.805 5.781 QT
6.813 7.562 10.078 7.562 QT
11.219 7.562 12.188 6.906 QT
13.156 6.25 13.695 5.172 QT
14.234 4.094 14.234 2.953 QT
14.234 1.953 13.828 1.016 QT
13.422 0.078 12.664 -0.617 QT
11.906 -1.313 10.953 -1.547 QT
6.672 -2.594 L
4.547 -3.156 3.203 -4.899 QT
1.859 -6.641 1.859 -8.828 QT
1.859 -10.531 2.727 -12.031 QT
3.594 -13.531 5.07 -14.399 QT
6.547 -15.266 8.25 -15.266 QT
11.547 -15.266 13.5 -13.031 QT
14.859 -15.172 L
14.953 -15.266 15.078 -15.266 QT
15.313 -15.266 L
15.406 -15.266 15.492 -15.195 QT
15.578 -15.125 15.578 -15 QT
15.578 -7.344 L
15.578 -7.047 15.313 -7.047 QT
14.922 -7.047 L
14.609 -7.047 14.609 -7.344 QT
14.609 -8.172 14.328 -9.172 QT
14.047 -10.172 13.547 -11.094 QT
13.047 -12.016 12.469 -12.594 QT
10.875 -14.203 8.25 -14.203 QT
7.125 -14.203 6.172 -13.633 QT
5.219 -13.063 4.656 -12.078 QT
4.094 -11.094 4.094 -10.016 QT
4.094 -8.594 4.969 -7.445 QT
5.844 -6.297 7.266 -5.922 QT
11.547 -4.875 L
12.609 -4.609 13.555 -3.945 QT
14.5 -3.281 15.133 -2.391 QT
15.766 -1.5 16.117 -0.414 QT
16.469 0.672 16.469 1.828 QT
16.469 3.609 15.648 5.203 QT
14.828 6.797 13.336 7.758 QT
11.844 8.719 10.078 8.719 QT
8.969 8.719 7.828 8.476 QT
6.688 8.234 5.719 7.742 QT
4.75 7.25 3.969 6.453 QT
2.578 8.625 L
2.484 8.719 2.344 8.719 QT
2.141 8.719 L
1.859 8.719 1.859 8.469 QT
cp
f
GR
GS
[0.75 0 0 0.75 425.9594 69.65237] CT
N
19.378 8 M
19.378 6.844 L
22.94 6.844 22.94 5.797 QT
22.94 -12.328 L
22.94 -13.375 19.378 -13.375 QT
19.378 -14.547 L
29.565 -14.547 L
29.565 -13.375 L
26.019 -13.375 26.019 -12.328 QT
26.019 5.797 L
26.019 6.844 29.565 6.844 QT
29.565 8 L
19.378 8 L
cp
f
GR
GS
[0.75 0 0 0.75 425.9594 69.65237] CT
N
32.415 8.469 M
32.415 0.766 L
32.415 0.5 32.696 0.5 QT
33.103 0.5 L
33.196 0.5 33.274 0.586 QT
33.353 0.672 33.353 0.766 QT
33.353 4 35.36 5.781 QT
37.368 7.562 40.634 7.562 QT
41.774 7.562 42.743 6.906 QT
43.712 6.25 44.251 5.172 QT
44.79 4.094 44.79 2.953 QT
44.79 1.953 44.384 1.016 QT
43.978 0.078 43.22 -0.617 QT
42.462 -1.313 41.509 -1.547 QT
37.228 -2.594 L
35.103 -3.156 33.759 -4.899 QT
32.415 -6.641 32.415 -8.828 QT
32.415 -10.531 33.282 -12.031 QT
34.149 -13.531 35.626 -14.399 QT
37.103 -15.266 38.806 -15.266 QT
42.103 -15.266 44.056 -13.031 QT
45.415 -15.172 L
45.509 -15.266 45.634 -15.266 QT
45.868 -15.266 L
45.962 -15.266 46.048 -15.195 QT
46.134 -15.125 46.134 -15 QT
46.134 -7.344 L
46.134 -7.047 45.868 -7.047 QT
45.478 -7.047 L
45.165 -7.047 45.165 -7.344 QT
45.165 -8.172 44.884 -9.172 QT
44.603 -10.172 44.103 -11.094 QT
43.603 -12.016 43.024 -12.594 QT
41.431 -14.203 38.806 -14.203 QT
37.681 -14.203 36.728 -13.633 QT
35.774 -13.063 35.212 -12.078 QT
34.649 -11.094 34.649 -10.016 QT
34.649 -8.594 35.524 -7.445 QT
36.399 -6.297 37.821 -5.922 QT
42.103 -4.875 L
43.165 -4.609 44.11 -3.945 QT
45.056 -3.281 45.688 -2.391 QT
46.321 -1.5 46.673 -0.414 QT
47.024 0.672 47.024 1.828 QT
47.024 3.609 46.204 5.203 QT
45.384 6.797 43.892 7.758 QT
42.399 8.719 40.634 8.719 QT
39.524 8.719 38.384 8.476 QT
37.243 8.234 36.274 7.742 QT
35.306 7.25 34.524 6.453 QT
33.134 8.625 L
33.04 8.719 32.899 8.719 QT
32.696 8.719 L
32.415 8.719 32.415 8.469 QT
cp
f
GR
GS
[0.75 0 0 0.75 0 0] CT
[2 2] 0 setdash
2 LJ
2.667 LW
N
524.995 92.87 M
564.949 92.87 L
S
GR
GS
[0.75 0 0 0.75 425.9594 99.84763] CT
N
1.063 8 M
1.063 6.844 L
4.016 6.844 4.688 4.891 QT
11.625 -15.266 L
11.719 -15.625 12.156 -15.625 QT
12.563 -15.625 L
13 -15.625 13.094 -15.266 QT
20.328 5.797 L
20.641 6.484 21.5 6.664 QT
22.359 6.844 23.656 6.844 QT
23.656 8 L
14.453 8 L
14.453 6.844 L
17.188 6.844 17.188 5.953 QT
17.188 5.797 L
15.406 0.641 L
7.391 0.641 L
5.906 4.891 L
5.875 5 5.875 5.234 QT
5.875 6.047 6.656 6.445 QT
7.438 6.844 8.344 6.844 QT
8.344 8 L
1.063 8 L
cp
7.781 -0.516 M
15.016 -0.516 L
11.391 -11.047 L
7.781 -0.516 L
cp
f
GR
GS
[0.75 0 0 0.75 425.9594 99.84763] CT
N
26.063 8 M
26.063 6.844 L
29.016 6.844 29.688 4.891 QT
36.625 -15.266 L
36.719 -15.625 37.156 -15.625 QT
37.563 -15.625 L
38 -15.625 38.094 -15.266 QT
45.328 5.797 L
45.641 6.484 46.5 6.664 QT
47.359 6.844 48.656 6.844 QT
48.656 8 L
39.453 8 L
39.453 6.844 L
42.188 6.844 42.188 5.953 QT
42.188 5.797 L
40.406 0.641 L
32.391 0.641 L
30.906 4.891 L
30.875 5 30.875 5.234 QT
30.875 6.047 31.656 6.445 QT
32.438 6.844 33.344 6.844 QT
33.344 8 L
26.063 8 L
cp
32.781 -0.516 M
40.016 -0.516 L
36.391 -11.047 L
32.781 -0.516 L
cp
f
GR
GS
[0.75 0 0 0.75 425.9594 99.84763] CT
N
50.375 1.891 M
50.375 -0.156 L
59.109 -0.156 L
59.109 1.891 L
50.375 1.891 L
cp
f
GR
GS
[0.75 0 0 0.75 425.9594 99.84763] CT
N
62.236 8 M
62.236 6.844 L
65.642 6.844 65.642 5.797 QT
65.642 -12.328 L
65.642 -13.375 62.236 -13.375 QT
62.236 -14.547 L
74.377 -14.547 L
76.049 -14.547 77.76 -13.891 QT
79.471 -13.234 80.588 -11.953 QT
81.705 -10.672 81.705 -8.938 QT
81.705 -6.922 80.057 -5.563 QT
78.408 -4.203 76.189 -3.781 QT
77.627 -3.781 79.142 -2.992 QT
80.658 -2.203 81.627 -0.883 QT
82.596 0.437 82.596 1.922 QT
82.596 3.734 81.525 5.117 QT
80.455 6.5 78.744 7.25 QT
77.033 8 75.314 8 QT
62.236 8 L
cp
68.502 5.797 M
68.502 6.5 68.908 6.672 QT
69.314 6.844 70.189 6.844 QT
74.377 6.844 L
75.658 6.844 76.767 6.164 QT
77.877 5.484 78.517 4.351 QT
79.158 3.219 79.158 1.922 QT
79.158 0.672 78.627 -0.531 QT
78.096 -1.734 77.103 -2.508 QT
76.111 -3.281 74.846 -3.281 QT
68.502 -3.281 L
68.502 5.797 L
cp
68.502 -4.156 M
73.455 -4.156 L
74.455 -4.156 75.33 -4.516 QT
76.205 -4.875 76.908 -5.563 QT
77.611 -6.25 77.986 -7.109 QT
78.361 -7.969 78.361 -8.938 QT
78.361 -9.797 78.08 -10.586 QT
77.799 -11.375 77.252 -12.016 QT
76.705 -12.656 75.963 -13.016 QT
75.221 -13.375 74.377 -13.375 QT
70.189 -13.375 L
69.58 -13.375 69.252 -13.328 QT
68.924 -13.281 68.713 -13.047 QT
68.502 -12.813 68.502 -12.328 QT
68.502 -4.156 L
cp
f
GR
GS
[0.75 0 0 0.75 425.9594 99.84763] CT
N
85.816 8 M
85.816 6.844 L
89.222 6.844 89.222 5.797 QT
89.222 -12.328 L
89.222 -13.375 85.816 -13.375 QT
85.816 -14.547 L
97.566 -14.547 L
99.363 -14.547 101.168 -13.805 QT
102.972 -13.063 104.144 -11.641 QT
105.316 -10.219 105.316 -8.344 QT
105.316 -6.5 104.136 -5.117 QT
102.957 -3.734 101.168 -3.016 QT
99.379 -2.297 97.566 -2.297 QT
92.285 -2.297 L
92.285 5.797 L
92.285 6.844 95.676 6.844 QT
95.676 8 L
85.816 8 L
cp
92.176 -3.281 M
96.66 -3.281 L
98.488 -3.281 99.613 -3.805 QT
100.738 -4.328 101.261 -5.43 QT
101.785 -6.531 101.785 -8.344 QT
101.785 -11.031 100.605 -12.203 QT
99.426 -13.375 96.66 -13.375 QT
93.863 -13.375 L
93.269 -13.375 92.933 -13.328 QT
92.597 -13.281 92.386 -13.047 QT
92.176 -12.813 92.176 -12.328 QT
92.176 -3.281 L
cp
f
GR
GS
[0.75 0 0 0.75 425.9594 99.84763] CT
N
115.001 4.469 M
116.189 5.922 117.908 6.742 QT
119.626 7.562 121.486 7.562 QT
123.33 7.562 124.83 6.633 QT
126.33 5.703 126.33 3.969 QT
126.33 1.203 L
126.33 0.156 122.205 0.156 QT
122.205 -1 L
131.658 -1 L
131.658 0.156 L
130.611 0.156 130.001 0.328 QT
129.392 0.5 129.392 1.203 QT
129.392 7.703 L
129.392 7.828 129.298 7.914 QT
129.205 8 129.095 8 QT
128.783 8 128.072 7.273 QT
127.361 6.547 126.939 5.984 QT
126.126 7.375 124.408 8.047 QT
122.689 8.719 120.798 8.719 QT
117.595 8.719 114.962 7.07 QT
112.33 5.422 110.798 2.656 QT
109.267 -0.109 109.267 -3.281 QT
109.267 -5.609 110.15 -7.82 QT
111.033 -10.031 112.619 -11.703 QT
114.205 -13.375 116.314 -14.32 QT
118.423 -15.266 120.798 -15.266 QT
122.501 -15.266 124.025 -14.531 QT
125.548 -13.797 126.751 -12.469 QT
128.658 -15.172 L
128.861 -15.266 128.892 -15.266 QT
129.126 -15.266 L
129.22 -15.266 129.306 -15.188 QT
129.392 -15.109 129.392 -15 QT
129.392 -6.078 L
129.392 -5.797 129.126 -5.797 QT
128.533 -5.797 L
128.22 -5.797 128.22 -6.078 QT
128.22 -7.031 127.845 -8.211 QT
127.47 -9.391 126.884 -10.445 QT
126.298 -11.5 125.517 -12.297 QT
123.673 -14.109 121.267 -14.109 QT
119.423 -14.109 117.751 -13.289 QT
116.08 -12.469 114.939 -11.016 QT
113.72 -9.469 113.251 -7.492 QT
112.783 -5.516 112.783 -3.281 QT
112.783 1.781 115.001 4.469 QT
cp
f
GR
GS
[0.75 0 0 0.75 425.9594 99.84763] CT
N
135.206 8 M
135.206 7.109 L
135.206 7.031 135.268 6.937 QT
140.393 1.266 L
141.565 0 142.284 -0.852 QT
143.003 -1.703 143.714 -2.813 QT
144.424 -3.922 144.839 -5.078 QT
145.253 -6.234 145.253 -7.516 QT
145.253 -8.875 144.753 -10.109 QT
144.253 -11.344 143.26 -12.078 QT
142.268 -12.813 140.862 -12.813 QT
139.424 -12.813 138.284 -11.953 QT
137.143 -11.094 136.674 -9.719 QT
136.799 -9.75 137.034 -9.75 QT
137.768 -9.75 138.292 -9.258 QT
138.815 -8.766 138.815 -7.969 QT
138.815 -7.219 138.292 -6.688 QT
137.768 -6.156 137.034 -6.156 QT
136.253 -6.156 135.729 -6.703 QT
135.206 -7.25 135.206 -7.969 QT
135.206 -9.203 135.674 -10.297 QT
136.143 -11.391 137.018 -12.234 QT
137.893 -13.078 139.003 -13.531 QT
140.112 -13.984 141.346 -13.984 QT
143.237 -13.984 144.862 -13.188 QT
146.487 -12.391 147.44 -10.93 QT
148.393 -9.469 148.393 -7.516 QT
148.393 -6.078 147.76 -4.789 QT
147.128 -3.5 146.151 -2.445 QT
145.174 -1.391 143.643 -0.055 QT
142.112 1.281 141.628 1.734 QT
137.878 5.328 L
141.065 5.328 L
143.393 5.328 144.964 5.289 QT
146.534 5.25 146.628 5.156 QT
147.018 4.75 147.424 2.125 QT
148.393 2.125 L
147.456 8 L
135.206 8 L
cp
f
GR
GS
[0.75 0 0 0.75 0 0] CT
1 LJ
2.667 LW
N
524.995 133.13 M
564.949 133.13 L
S
GR
GS
[0.75 0 0 0.75 0 0] CT
10.0 ML
2.667 LW
N
521 155 M
521 71 L
722 71 L
722 155 L
cp
S
GR
%%Trailer
%%Pages: 1
%%EOF
